2020-02-15 .11 0 1.00 10 .72
2020-02-16 .11 0 1.00 10 .72
2020-02-17 .11 0 1.00 10 .72
2020-02-18 .12 0 1.00 10 .72
2020-02-19 .11 0 1.00 10 .72
2020-02-20 .11 0 1.00 10 .72
2020-02-21 .11 0 1.00 10 .72
2020-02-22 .13 0 1.00 10 .72
2020-02-23 .11 0 1.00 10 .72
2020-02-24 .11 0 1.00 10 .72
2020-02-25 .12 0 1.00 10 .72
2020-02-26 .12 0 1.00 10 .72
2020-02-27 .19 0 1.00 10 .72
2020-02-28 .11 0 1.00 10 .72
2020-02-29 .13 0 1.00 10 .72
2020-03-01 .11 0 1.00 10 .72
2020-03-02 .19 0 1.00 10 .72
2020-03-03 .13 0 1.00 10 .72
2020-03-04 .11 0 1.00 10 .72
2020-03-05 .22 0 1.00 10 .72
2020-03-06 .12 0 1.00 10 .72
2020-03-07 .12 0 1.00 10 .72
2020-03-08 .12 0 1.00 10 .72
2020-03-09 .12 0 1.00 10 .72
2020-03-10 .11 0 1.00 10 .72
2020-03-11 .12 0 1.00 10 .72
2020-03-12 .11 0 1.00 10 .72
2020-03-13 .13 0 1.00 10 .72
