{
  "0": {
    "chargeType": 1,
    "amount": 100
  },
  "1": {
    "chargeType": 2,
    "amount": 100
  },
  "2": {
    "chargeType": 3,
    "amount": 100
  },
  "3": {
    "chargeType": 1,
    "amount": 300
  },
  "4": {
    "chargeType": 2,
    "amount": 300
  },
  "5": {
    "chargeType": 3,
    "amount": 300
  },
  "6": {
    "chargeType": 1,
    "amount": 165
  },
  "7": {
    "chargeType": 2,
    "amount": 165
  },
  "8": {
    "chargeType": 3,
    "amount": 165
  }
}
